<?xml version="1.0" encoding="UTF-8"?>
<svg width="50" height="50" version="1.1" viewBox="0 0 13.229 13.229" xmlns="http://www.w3.org/2000/svg" xmlns:cc="http://creativecommons.org/ns#" xmlns:dc="http://purl.org/dc/elements/1.1/" xmlns:rdf="http://www.w3.org/1999/02/22-rdf-syntax-ns#">
<metadata>
<rdf:RDF>
<cc:Work rdf:about="">
<dc:format>image/svg+xml</dc:format>
<dc:type rdf:resource="http://purl.org/dc/dcmitype/StillImage"/>
<dc:title/>
</cc:Work>
</rdf:RDF>
</metadata>
<g transform="translate(0 -283.77)">
<g transform="matrix(.04959 0 0 .05694 3.341 285.13)" stroke-width=".26718">
<path d="m125.28 170.43c-1.2027-0.48493-2.4651-1.0672-2.8053-1.294-0.86768-0.57835-6.0312-5.4047-8.9011-8.3198-1.3225-1.3434-6.1874-6.1089-10.811-10.59-4.6234-4.4812-10.218-9.951-12.432-12.155-2.2141-2.2042-4.563-4.5192-5.2197-5.1445-0.6567-0.62527-1.3744-1.3167-1.5948-1.5365-0.22042-0.21978-3.158-3.0746-6.528-6.344-3.37-3.2694-7.5569-7.3571-9.3043-9.0838-1.7474-1.7266-3.3138-3.1393-3.4809-3.1393-0.16708 0-1.4131 1.1121-2.769 2.4714-1.3559 1.3593-4.4712 4.395-6.9229 6.7462-2.4518 2.3511-6.5721 6.3187-9.1564 8.8168-2.5843 2.4981-6.4405 6.2252-8.5693 8.2824-2.1288 2.0572-5.6362 5.4838-7.7941 7.6145-2.1579 2.1307-5.9956 5.8578-8.5281 8.2824-2.5325 2.4246-6.3038 6.0533-8.3807 8.0637-5.7687 5.5844-6.4037 5.9744-9.6539 5.9298-3.5754-0.049-6.2039-1.3666-10.019-5.0222-1.1021-1.056-2.605-2.4436-3.3397-3.0836-5.4638-4.759-8.5649-7.8103-9.1707-9.0232-0.91722-1.8365-1.1364-3.2815-0.73089-4.8187 0.43849-1.6622 1.2614-3.0589 2.1426-3.6362 0.35616-0.23336 1.5939-1.2978 2.7506-2.3654 2.0693-1.9099 13.225-11.739 15.39-13.559 0.60905-0.51221 3.2207-2.7966 5.8036-5.0763 2.5829-2.2798 5.1678-4.5597 5.7443-5.0665 0.57642-0.50677 2.4745-2.19 4.2181-3.7404 1.7435-1.5505 3.7874-3.3451 4.542-3.988 1.3071-1.1137 7.7242-6.7894 16.199-14.327 2.1477-1.9103 4.3113-3.7832 4.8079-4.1621l0.90301-0.68881-1.6505-1.5822c-0.90777-0.8702-4.5516-4.4486-8.0973-7.9519l-6.4468-6.3697-1.1029 0.12971c-0.6066 0.0713-2.2451 0.36779-3.6411 0.65878s-3.2595 0.61178-4.1412 0.71287c-0.88168 0.10108-3.4065 0.54497-5.6107 0.98642s-4.4885 0.85942-5.0763 0.92883c-0.58778 0.0694-2.0906 0.30144-3.3397 0.51565-1.249 0.2142-2.781 0.38985-3.4044 0.39032-1.1158 8e-4 -1.1657-0.04-3.2061-2.6231-1.14-1.4432-2.4934-3.1996-3.0078-3.9033s-1.2357-1.6726-1.6031-2.1531c-0.36737-0.48051-1.3586-1.8199-2.2027-2.9764-1.468-2.0113-4.5582-6.0515-5.4911-7.1791-0.24314-0.29389-1.4246-1.8569-2.6255-3.4733-1.2009-1.6164-2.4722-3.2395-2.825-3.6069-1.2552-1.3068-2.8861-3.6642-2.8821-4.1659 0.0058-0.7224-0.02831-0.68535 4.4816-4.8691 3.0228-2.8042 4.2611-3.7895 4.7624-3.7895 0.68576 0 2.4293 1.4862 8.776 7.4809 5.8324 5.5089 10.608 9.7638 11.222 9.9982 0.47466 0.1812 1.5144 0.02616 3.9342-0.58664 6.7667-1.7136 8.6396-2.2385 8.8979-2.4934 0.32143-0.31724 0.95496-2.0735 2.1582-5.983 0.49748-1.6164 1.0987-3.5007 1.3359-4.1873 0.25756-0.74532 0.34065-1.3987 0.20617-1.6214-0.12388-0.20513-1.7181-1.7474-3.5426-3.4272-1.8246-1.6798-4.4802-4.1363-5.9015-5.4588-1.4212-1.3225-4.152-3.7872-6.0683-5.4771-1.9163-1.6899-3.6134-3.3364-3.7712-3.6589-0.25582-0.52272-0.10701-0.75773 1.3704-2.1644 3.8821-3.6961 7.5296-6.9793 8.0826-7.2753 0.72009-0.38538 0.58466-0.45056 6.06 2.9164 2.2438 1.3798 5.1326 3.0902 6.4196 3.8009 1.287 0.7107 2.6696 1.5164 3.0725 1.7903 0.79297 0.53928 3.1061 1.9393 4.6066 2.7882 1.5035 0.85057 4.8851 2.9047 5.6107 3.4082 0.36737 0.25491 1.3292 0.82232 2.1374 1.2609 2.1595 1.1719 5.6707 3.3036 6.234 3.7848 0.52576 0.44907 0.5203 0.76464-0.06991 4.0358-0.17234 0.95515-0.43561 1.9584-0.58505 2.2295-0.14944 0.27108-0.80227 2.7358-1.4507 5.4771-1.0761 4.549-1.4912 6.2901-2.6641 11.173-0.21757 0.9058-0.39557 1.8906-0.39557 2.1884 0 0.36321 1.1696 1.5497 3.5522 3.6034 1.9537 1.684 3.719 3.2629 3.923 3.5086 0.20392 0.24571 0.82967 0.68086 1.3905 0.967 0.56088 0.28614 1.0198 0.6325 1.0198 0.76968 0 0.20421 10.699 9.6881 11.898 10.547 0.25577 0.1832 0.71447-0.0783 1.6424-0.93629 0.70813-0.65477 3.5694-3.294 6.3584-5.8649s6.0985-5.6362 7.3546-6.8118 4.6249-4.2595 7.4864-6.8531c2.8615-2.5937 5.5273-5.0587 5.9242-5.4779l0.72147-0.76213-0.51022-1.1396c-0.28062-0.62679-0.63648-1.8359-0.7908-2.6869-0.29725-1.6393-0.19605-2.1633 1.0409-5.3895 0.89546-2.3354 1.0627-3.8885 0.67377-6.2552-0.211-1.2838-1.255-3.6043-2.0866-4.638-0.32254-0.40089-0.9099-1.2098-1.3052-1.7976-1.5905-2.3647-7.5249-6.9974-10.667-8.3272-0.92994-0.39356-1.8711-0.86653-2.0916-1.051-0.78754-0.65928-6.8239-2.9372-9.4116-3.5516-2.4632-0.58487-6.4152-0.83347-9.2568-0.5823-1.5243 0.13473-2.937 0.18144-3.1393 0.1038-0.59768-0.22935-0.422-0.77476 0.36686-1.139 1.1692-0.5398 5.5844-1.5352 8.3492-1.8823 1.396-0.17525 3.1162-0.49975 3.8227-0.72112 1.6848-0.52788 14.833-0.62927 16.883-0.1302 0.73473 0.17884 2.959 0.68366 4.9427 1.1218 1.9838 0.43816 4.263 1.0671 5.0649 1.3977 3.356 1.3836 8.5881 4.2408 10.82 5.9086 1.8748 1.4012 7.36 6.2419 11.091 9.7879 0.23192 0.22042 2.4028 2.255 4.8241 4.5214 12.47 11.671 14.525 14.074 18.021 21.068 1.5592 3.1195 4.0636 6.7024 5.7237 8.1883 0.55884 0.50022 0.61626 0.50135 2.0771 0.0409 2.735-0.86213 6.1136-0.0621 8.1952 1.9406 1.7001 1.6357 2.5813 3.6022 2.5778 5.753-4e-3 2.4697-0.8063 3.924-3.3351 6.045-1.1388 0.95515-2.5669 2.2616-3.1737 2.9033-0.60673 0.64166-2.1852 2.0994-3.5077 3.2394-1.3225 1.14-2.9747 2.626-3.6716 3.302-2.0895 2.0272-3.086 2.403-5.935 2.2381-3.1305-0.1812-4.7022-0.78471-6.4208-2.4654-1.147-1.1217-1.4422-1.6199-1.8412-3.1077-0.78175-2.9152-0.21487-5.3012 1.6749-7.0498 0.60404-0.55889 1.0983-1.1906 1.0983-1.4037 0-0.48116-1.7065-2.5607-4.0539-4.94-1.316-1.3339-2.3306-2.0687-3.874-2.8056-2.3369-1.1158-2.7834-1.1534-8.799-0.7415l-3.2346 0.22151-2.8324-1.2642c-2.6906-1.2009-2.863-1.2427-3.4447-0.8354-0.89517 0.62679-6.0008 5.214-9.2685 8.3274-1.5578 1.4843-3.9161 3.6484-5.2406 4.8092-1.3245 1.1608-3.4886 3.1501-4.8092 4.4206-1.3205 1.2706-2.8819 2.7151-3.4697 3.2101-0.58779 0.49494-1.434 1.2588-1.8806 1.6975s-1.453 1.3906-2.2365 2.1155l-1.4247 1.318 1.4601 1.3538c0.80304 0.7446 2.209 1.955 3.1242 2.6897 0.91529 0.73473 2.1063 1.7396 2.6467 2.2331 0.54039 0.49346 2.1112 1.8761 3.4908 3.0725 1.3796 1.1964 4.514 3.9186 6.9654 6.0494s5.9991 5.1966 7.8837 6.813 5.0766 4.3817 7.0932 6.145c2.0166 1.7634 5.6134 4.8893 7.9929 6.9466 2.3794 2.0572 6.3928 5.5483 8.9185 7.758s5.2568 4.5541 6.0691 5.2099c2.8962 2.3383 9.4912 8.2716 10.299 9.2654 2.0765 2.5555 3.0139 6.1549 2.4532 9.4194-0.60806 3.5399-3.5038 7.6545-6.7724 9.6228-2.6959 1.6235-4.6244 2.1273-8.1244 2.1223-2.8509-4e-3 -3.2303-0.0679-5.2592-0.88603zm9.4797-7.8386c1.3685-1.1076 1.9438-1.9754 2.1046-3.1747 0.33638-2.5078-1.0755-4.7786-3.5459-5.7028-1.7914-0.67026-3.152-0.69499-4.3769-0.0795-1.3098 0.65806-2.0064 1.8525-2.3722 4.0673-0.57463 3.4795 0.31801 4.9102 3.5691 5.7206 0.2939 0.0733 1.2391 0.0902 2.1004 0.0376 1.2432-0.0759 1.7629-0.25489 2.5209-0.8684z" fill="#cecece"/>
<path d="m128 170.88c-0.29389-0.0682-1.4893-0.49952-2.6564-0.95848-2.6272-1.0331-4.0081-2.1459-9.9864-8.0471-4.989-4.9247-5.379-5.3062-14.609-14.293-3.3798-3.2906-8.7363-8.5202-11.903-11.621s-8.4571-8.2672-11.756-11.48c-3.2986-3.213-7.4704-7.289-9.2708-9.0578-2.7639-2.7154-3.3546-3.1785-3.7949-2.975-0.46259 0.21374-4.5179 4.0797-17.913 17.076-2.1307 2.0674-5.9162 5.7378-8.4123 8.1565s-6.5838 6.385-9.084 8.8141c-4.9619 4.8209-18.25 17.65-20.175 19.479-0.66126 0.62801-1.958 1.5032-2.8816 1.9449-1.4824 0.70891-1.8897 0.78897-3.4733 0.68271-4.2016-0.28191-6.0514-1.5976-17.913-12.741-3.3515-3.1484-4.3336-4.5075-4.6953-6.4977-0.32603-1.7938 0.70349-4.6161 1.9556-5.3609 0.38012-0.22613 1.7815-1.4127 3.1142-2.6368 1.3327-1.2241 4.0927-3.6684 6.1333-5.4318 2.0407-1.7634 4.9008-4.2882 6.3558-5.6107 1.455-1.3225 3.0318-2.7052 3.5039-3.0725 0.77418-0.60237 6.9381-6.022 11.305-9.9401 0.93431-0.83824 2.5944-2.2773 3.6891-3.198s1.9903-1.7574 1.9903-1.8594 0.81154-0.82445 1.8034-1.6054c0.99189-0.78093 2.8293-2.3843 4.083-3.5631 1.2538-1.1788 3.2977-3.0139 4.542-4.078 4.4229-3.7825 8.3668-7.2612 10.781-9.5092 0.60491-0.56329 1.6108-1.3952 2.2353-1.8487 0.62452-0.45351 1.1355-0.95198 1.1355-1.1077 0-0.15574-2.0997-2.3295-4.6661-4.8307s-6.2873-6.1405-8.2688-8.0876c-3.8967-3.8289-3.8839-3.8223-6.1864-3.1625-0.72466 0.20766-2.1592 0.51256-3.1878 0.67756-5.6621 0.90825-8.5563 1.3984-10.954 1.855-5.0357 0.95895-9.9122 1.6561-10.366 1.482-0.39161-0.15028-3.6244-4.2435-6.9275-8.7713-2.4712-3.3874-5.8404-7.8338-8.6834-11.46-1.0621-1.3545-2.2644-2.9219-2.6718-3.483-0.40736-0.56113-1.118-1.4628-1.5793-2.0038-1.1842-1.3889-3.0354-3.8759-3.0354-4.078 0-0.09343 1.1047-1.1787 2.455-2.4118 1.3502-1.233 3.3278-3.0534 4.3944-4.0453 1.0667-0.99189 2.0473-1.8034 2.1792-1.8034s0.46874 0.2571 0.74867 0.57134c0.27993 0.31424 1.4708 1.4091 2.6464 2.4331 1.1756 1.024 3.161 2.8408 4.4121 4.0374 6.4434 6.1629 11.427 10.555 12.208 10.758 0.32438 0.0844 2.248-0.27846 4.2748-0.80627 2.0268-0.52781 4.707-1.2132 5.956-1.523 1.4022-0.34786 2.4852-0.78283 2.831-1.1371 0.31858-0.32634 1.0493-2.1288 1.6949-4.1805 0.62419-1.9838 1.3641-4.2488 1.6442-5.0333 1.0054-2.8161 1.1258-2.6088-4.6238-7.9582-2.8232-2.6266-5.6185-5.1762-6.2118-5.6656-0.59335-0.48947-1.9204-1.6985-2.949-2.6868-1.0286-0.98825-2.6248-2.442-3.547-3.2305-0.92221-0.78855-1.6436-1.5229-1.6031-1.6319 0.15031-0.40413 9.4364-8.786 9.738-8.7898 0.17225-0.0021 1.2543 0.59603 2.4046 1.3293 1.1503 0.73324 2.6925 1.6516 3.4273 2.0408 0.73473 0.38921 1.9971 1.1535 2.8053 1.6985 0.8082 0.54495 2.4226 1.4908 3.5875 2.1019s2.3071 1.2783 2.5382 1.4826 0.85773 0.59444 1.3925 0.86684c1.2711 0.64746 3.1869 1.7905 5.1476 3.0713 0.86791 0.56695 1.6792 1.0308 1.8028 1.0308 0.12364 0 0.79617 0.40739 1.4945 0.90531 0.69833 0.49792 1.8943 1.2494 2.6578 1.6698 2.9444 1.6217 5.5777 3.2639 6.0192 3.7536 0.38549 0.42769 0.41481 0.67749 0.17954 1.5296-0.15466 0.56013-0.38197 1.576-0.50514 2.2575s-0.42049 1.7696-0.66072 2.4179c-0.24023 0.64837-0.85078 3.0529-1.3568 5.3435-0.506 2.2906-1.1023 4.6809-1.325 5.312-0.22276 0.63103-0.52199 1.8934-0.66495 2.8053-0.14296 0.91191-0.44229 2.3154-0.66518 3.1189-0.64605 2.329-0.59232 2.4892 1.3982 4.1673 0.99189 0.83623 2.4551 2.0761 3.2515 2.7553 0.79645 0.67917 2.0589 1.7431 2.8053 2.3643s2.0185 1.7256 2.8267 2.4542c2.6897 2.4247 4.396 3.9059 5.6428 4.8979 0.67892 0.5402 2.1664 1.8586 3.3055 2.9298 2.4004 2.2573 2.6581 2.4326 3.2804 2.2318 0.25419-0.082 1.4374-1.0812 2.6294-2.2205s4.0721-3.8148 6.4003-5.9455c2.3282-2.1307 5.3611-4.9359 6.7396-6.2338s2.8241-2.6204 3.2124-2.9389c0.38828-0.31856 1.6703-1.5065 2.8489-2.6398 1.1786-1.1334 2.5638-2.3929 3.0781-2.7991 0.51431-0.40614 1.752-1.5374 2.7503-2.5139l1.8152-1.7754-0.70383-1.5705c-0.93948-2.0964-1.0218-4.5427-0.21515-6.3964 0.99301-2.282 1.2963-3.6578 1.292-5.8612-5e-3 -2.6536-0.50046-4.0555-2.4888-7.0436-2.724-4.0938-7.1576-7.6673-13.27-10.696-7.6106-3.7707-13.307-5.1173-19.264-4.5538-2.4337 0.23025-3.0756 0.19236-2.7225-0.16071 0.53541-0.53541 9.0705-2.1967 14.505-2.8234 2.8396-0.32742 13.273-0.14516 14.427 0.25204 0.44083 0.15166 2.3645 0.59087 4.2748 0.97602 3.7788 0.76186 6.8881 1.944 11.119 4.2274 4.4813 2.4184 6.8242 4.3094 15.732 12.698 2.4246 2.2833 6.0161 5.6619 7.9811 7.508 5.504 5.1708 6.2308 5.8839 8.1491 7.9953 2.6683 2.937 4.75 6.0162 6.8401 10.118 1.0309 2.0231 2.2056 4.0877 2.6104 4.5881 2.587 3.1976 3.3648 4.0845 3.6925 4.2103 0.20304 0.0779 1.0658-0.0839 1.9171-0.35965 1.3543-0.43858 1.7814-0.46346 3.4135-0.19885 2.4594 0.39874 3.5725 0.92297 4.767 2.2452 1.1755 1.3011 2.3085 3.7347 2.3085 4.9585 0 0.48295-0.25968 1.5567-0.57706 2.386-0.50846 1.3287-0.96894 1.857-3.874 4.445-1.8133 1.6154-3.297 3.038-3.297 3.1613 0 0.12335-0.81155 0.88471-1.8034 1.6919-0.99188 0.80721-2.5849 2.212-3.5401 3.1218-0.95515 0.90974-2.3834 1.962-3.1739 2.3383-1.2313 0.58617-1.6741 0.6621-3.0902 0.52986-5.3305-0.49777-8.5263-3.7768-8.0623-8.2724 0.19828-1.9212 0.65685-2.825 2.0293-3.9997 0.59164-0.50642 1.0757-1.1295 1.0757-1.3845 0-0.59117-1.4236-2.3927-3.9907-5.0499-1.4052-1.4546-2.5651-2.3686-3.8081-3.001-2.7503-1.3992-3.7965-1.5481-7.2696-1.0349-4.2217 0.6239-5.3115 0.4317-9.4387-1.6646l-1.6648-0.8456-1.6755 1.3237c-0.92151 0.72804-1.8558 1.5354-2.0762 1.7942-0.22042 0.25876-1.6632 1.5852-3.2061 2.9476-1.5429 1.3624-3.2261 2.9283-3.7404 3.4798-0.51432 0.55144-2.2576 2.1853-3.874 3.6307-6.4146 5.7362-14.828 13.636-14.828 13.923 0 0.16678 1.3355 1.4315 2.9677 2.8105s4.3235 3.7096 5.9805 5.179c5.3098 4.7088 12.429 10.888 15.185 13.18 1.472 1.2242 3.0464 2.5618 3.4987 2.9725 1.6413 1.4902 8.0802 7.1245 9.6312 8.4276 0.87447 0.73473 1.8953 1.6205 2.2684 1.9683 0.37317 0.34782 1.3397 1.1862 2.148 1.863 2.2461 1.881 3.4884 2.9559 5.6071 4.8519 1.0674 0.95515 2.2149 1.918 2.5501 2.1396 0.33518 0.22165 1.0115 0.79183 1.5028 1.2671 0.49139 0.47525 2.752 2.458 5.0236 4.4062 5.8915 5.0525 9.2656 8.1244 10 9.1044 0.35035 0.46745 1.0114 1.7116 1.469 2.7649 1.3126 3.0211 1.1211 5.6469-0.68157 9.3437-2.3675 4.8551-7.8264 8.1708-13.304 8.0805-1.0345-0.017-2.1214-0.0868-2.4152-0.155zm6.8899-7.8472c0.89238-0.59109 1.4398-1.2336 1.964-2.305 0.68453-1.3991 0.70871-1.5717 0.41578-2.9683-0.63248-3.0154-2.5582-4.6038-5.8368-4.8146-2.9825-0.19171-4.3245 0.74271-5.066 3.5274-1.2962 4.868 0.51219 7.3381 5.3945 7.3684 1.674 0.0104 2.0333-0.0824 3.1285-0.80779z" fill="#acacac"/>
<path d="m-2.251 163.39c-0.72782-0.26606-1.5729-1.2031-1.7275-1.9155-0.21239-0.97893 0.49574-3.4929 1.4703-5.2197 1.3729-2.4326 3.9565-5.0269 14.954-15.016 35.624-32.358 31.84-29.045 35.131-30.748 2.0918-1.0821 2.6652-1.2588 4.4084-1.3587 1.8603-0.10656 2.0564-0.0658 2.7385 0.56921 1.8714 1.7422 0.19174 6.5669-3.7186 10.681-0.72309 0.76081-3.3533 3.2401-5.8448 5.5095-2.4916 2.2694-5.3116 4.8543-6.2667 5.7443s-4.1331 3.7822-7.0621 6.4272c-2.929 2.645-8.8803 8.0453-13.225 12.001-9.3006 8.4667-10.46 9.4543-13.11 11.164-2.8456 1.8362-6.1312 2.753-7.7481 2.162zm117.96-10.339c-1.7547-0.55729-3.6575-1.6341-5.0714-2.8699-0.732-0.63983-9.247-8.3567-18.922-17.149-11.335-10.3-17.87-16.424-18.374-17.22-2.5932-4.0891-2.5596-8.5941 0.0814-10.913 3.2226-2.8294 8.6882-2.0717 13.19 1.8287 1.6256 1.4084 8.6154 7.7392 17.484 15.836 2.5772 2.3528 7.7386 7.0431 11.47 10.423 7.0866 6.4192 8.3251 7.8428 9.2542 10.637 0.26231 0.78897 0.46092 2.2016 0.46116 3.2801 8e-4 3.106-1.3671 5.1906-4.0289 6.1406-1.2588 0.44924-4.1391 0.45237-5.5444 6e-3zm-129.64-1.079c-0.9513-0.42354-1.2831-1.2372-1.0687-2.621 0.41798-2.698 2.1592-5.3488 5.8368-8.8857 2.0092-1.9323 14.906-13.436 21.714-19.367 0.7589-0.66126 5.3833-4.749 10.276-9.084 4.8931-4.3349 9.8783-8.6335 11.078-9.5524 6.2848-4.8128 11.983-5.3734 11.262-1.108-0.36702 2.1724-2.3738 5.427-4.9028 7.9515-0.96818 0.96644-6.0992 5.5355-20.627 18.368-4.1773 3.6898-10.962 9.6866-15.076 13.326-4.3742 3.8694-8.5943 7.3572-10.162 8.3988-3.5833 2.3807-6.6418 3.3257-8.3305 2.5739z" fill="#768394"/>
<path d="m-2.5182 162.97c-0.36737-0.18581-0.83186-0.67972-1.0322-1.0976-0.49307-1.0283 0.1075-3.4806 1.3829-5.6467 1.835-3.1166 1.1083-2.4257 33.447-31.798 5.2901-4.8049 10.34-9.3625 11.221-10.128 3.5479-3.0808 6.6796-4.6904 9.5217-4.8937 1.6693-0.11944 1.9199-0.0711 2.5117 0.4849 1.3726 1.2895 0.62117 4.6224-1.8078 8.019-1.7381 2.4304-3.7799 4.3726-20.911 19.891-2.9199 2.645-8.8639 8.0453-13.209 12.001-4.3448 3.9553-8.6211 7.7943-9.5028 8.5312-4.6931 3.9221-9.3573 5.7833-11.622 4.6377zm118.89-9.9827c-1.3281-0.26553-4.4402-1.9688-5.8844-3.2205-5.7506-4.9841-36.32-33.073-36.823-33.835-1.2094-1.8322-1.9622-4.139-1.965-6.0215-4e-3 -2.7497 0.98947-4.5943 3.0754-5.7092 0.93691-0.5008 1.535-0.59795 3.6582-0.59422 2.3836 4e-3 2.6602 0.0647 4.542 0.99325 2.4667 1.2172 2.67 1.3927 21.116 18.236 2.5768 2.3528 7.646 6.9586 11.265 10.235 6.6993 6.0652 8.2162 7.7864 9.1198 10.347 1.3348 3.7833 0.40229 7.4341-2.2847 8.9443-0.85212 0.47892-1.597 0.6437-3.1346 0.69339-1.1093 0.0359-2.3174 5e-3 -2.6848-0.0684zm-130.04-1.1882c-1.5042-0.43923-1.5211-2.1416-0.05189-5.2201 0.68177-1.4285 1.5174-2.4579 4.0928-5.0421 2.5958-2.6046 12.407-11.42 22.447-20.168 0.7589-0.66126 5.3833-4.749 10.276-9.084 10.368-9.1856 12.494-10.88 15.417-12.289 6.2903-3.0317 8.3953-0.29646 4.3857 5.6985-1.5339 2.2933-3.8667 4.6113-10.702 10.634-6.1115 5.3849-17.698 15.619-27.633 24.407-4.3742 3.8694-8.5943 7.3572-10.162 8.3988-3.3861 2.2497-6.25 3.1952-8.0692 2.664z" fill="#5b7088"/>
<path d="m-2.184 162.92c-1.2247-0.53233-1.5097-1.3074-1.1655-3.1696 0.35243-1.9064 2.0134-4.7951 4.0021-6.9603 0.82258-0.89558 6.188-5.8965 11.923-11.113 14.989-13.634 27.395-24.904 29.468-26.769 3.8638-3.4776 7.4205-5.3134 10.433-5.3851 1.4832-0.0353 1.7564 0.0379 2.2042 0.59044 1.4287 1.763-0.3629 6.2921-3.9955 10.101-0.69875 0.7326-3.3671 3.2388-5.9296 5.5693-2.5625 2.3305-5.4407 4.9664-6.3958 5.8576-0.95515 0.89115-4.1331 3.7844-7.0621 6.4294-2.929 2.645-8.8278 7.9968-13.109 11.893-9.4403 8.592-10.263 9.2998-12.593 10.831-1.6825 1.1057-5.3653 2.5394-6.4586 2.5142-0.24957-6e-3 -0.84442-0.18026-1.3219-0.38779zm118.44-10.19c-1.8756-0.47846-3.8512-1.5443-5.4975-2.9658-0.81145-0.70068-9.3683-8.4503-19.015-17.221l-17.54-15.947-1.113-2.2461c-1.0195-2.0574-1.1138-2.4246-1.1223-4.3716-0.0142-3.2516 1.1274-5.0687 3.74-5.9532 1.8819-0.63709 4.1403-0.5079 6.4324 0.36794 2.2968 0.87767 2.9747 1.4002 9.3872 7.2357 2.7185 2.4739 8.0086 7.2843 11.756 10.69 3.7471 3.4054 9.5259 8.6583 12.842 11.673 6.1572 5.5982 7.277 6.8933 8.3129 9.615 0.6093 1.6009 0.72338 4.4257 0.22958 5.6846-1.195 3.0467-4.559 4.4223-8.4116 3.4394zm-130.2-1.1756c-0.96643-0.38846-0.82145-2.2138 0.37661-4.7416 0.82599-1.7428 1.4584-2.543 4.0744-5.1552 2.4792-2.4757 12.68-11.63 22.307-20.018 0.7589-0.66126 5.3884-4.749 10.288-9.084 4.8994-4.3349 9.4039-8.2875 10.01-8.7835 4.0074-3.2787 8.4892-5.3507 10.42-4.8176 1.262 0.34844 1.6305 1.1803 1.2118 2.7352-0.61795 2.2949-2.4034 5.0319-4.9083 7.5241-1.0579 1.0526-5.5134 5.0204-20.736 18.466-4.1773 3.6898-10.962 9.6851-15.076 13.323s-8.4524 7.266-9.6399 8.0627c-3.3027 2.2158-6.5743 3.1936-8.3277 2.4889z" fill="#225ca3"/>
<path d="m-2.1521 162.93c-1.0363-0.451-1.5541-1.1236-0.59988-0.77928 1.3447 0.48526 3.6621 0.19096 5.4579-0.69316 2.7153-1.3367 5.292-3.4302 14.032-11.4 4.4924-4.0967 10.558-9.6128 13.479-12.258 2.9213-2.645 6.8201-6.1928 8.6641-7.8838 1.844-1.6911 5.0734-4.6284 7.1764-6.5273 2.1632-1.9533 4.5015-4.352 5.3844-5.5238 2.3631-3.1361 3.3119-6.2473 2.2338-7.3254-0.77997-0.77997-3.5515-0.43953-6.0984 0.74908-2.1687 1.0121-2.069 0.66505 0.13359-0.46499 2.8847-1.48 6.0871-1.8041 6.9763-0.70608 1.4217 1.7557-0.37728 6.2928-4.002 10.093-0.69875 0.7326-3.3671 3.2388-5.9296 5.5693-2.5625 2.3305-5.4407 4.9664-6.3958 5.8576-0.95515 0.89115-4.1331 3.7844-7.0621 6.4294-2.929 2.645-8.8278 7.9968-13.109 11.893-9.4403 8.592-10.263 9.2998-12.593 10.831-1.6825 1.1057-5.3653 2.5394-6.4586 2.5142-0.24957-6e-3 -0.83008-0.17422-1.29-0.37438zm118.49-10.184c-1.4394-0.36873-3.3923-1.245-4.1046-1.8417-0.63549-0.53236-0.49082-0.48655 1.603 0.50763 2.1982 1.0437 5.3727 1.2561 7.1335 0.4772 3.5906-1.5883 4.0473-6.4768 1.0167-10.882-0.45644-0.66341-3.559-3.6876-6.8946-6.7203-3.3356-3.0328-9.1306-8.3009-12.878-11.707-19.73-17.933-18.148-16.588-20.75-17.658-2.0277-0.83371-5.0985-0.90285-6.5788-0.14813-0.54538 0.27805-0.99161 0.39152-0.99161 0.25215s0.56228-0.50212 1.2495-0.80611c2.8089-1.2425 7.2749-0.40689 10.183 1.9054 0.69208 0.55029 3.4826 3.0246 6.2011 5.4985 2.7185 2.4739 8.0086 7.2843 11.756 10.69 3.7471 3.4054 9.5259 8.6583 12.842 11.673 6.1572 5.5982 7.277 6.8933 8.3129 9.615 0.6093 1.6009 0.72338 4.4257 0.22958 5.6846-1.1842 3.0193-4.5652 4.4235-8.3292 3.4592zm-130.28-1.1954c-0.50139-0.20154-0.59531-0.43149-0.56597-1.3857 0.03517-1.144 0.03519-1.144 0.20038-0.21469 0.24215 1.3622 1.0674 1.5659 3.4333 0.84731 2.9099-0.88386 5.9201-3.0801 13.965-10.188 4.041-3.5708 10.765-9.511 14.942-13.201 4.1773-3.6896 10.309-9.1067 13.626-12.038 7.0293-6.2124 9.0856-8.252 10.468-10.383 1.1679-1.8001 1.9528-3.952 1.7149-4.7016-0.31725-0.99958-2.504-0.95106-5.0483 0.112-0.56569 0.23636-1.0927 0.36561-1.171 0.28722-0.17486-0.17486 1.8538-1.0603 3.6546-1.595 1.7104-0.50795 3.1311-0.17861 3.5082 0.81326 0.49073 1.2907-0.6731 4.1903-2.7226 6.7831-1.8931 2.3949-1.4326 1.974-22.962 20.99-4.1773 3.6898-10.962 9.6851-15.076 13.323s-8.4524 7.266-9.6399 8.0627c-3.3027 2.2158-6.5743 3.1936-8.3277 2.4889zm4.7424-10.174c2.2398-2.2268 13.401-12.235 22.016-19.741 0.7589-0.66126 5.3887-4.749 10.289-9.084 8.7385-7.7311 11.78-10.329 11.78-10.062 0 0.0735-0.64594 0.6543-1.4354 1.2907-0.78948 0.63643-5.4443 4.7039-10.344 9.0388-4.8998 4.3349-9.5296 8.4227-10.289 9.084-6.4521 5.622-19.754 17.47-22.016 19.61l-2.8053 2.6537zm106.03-4.1785c-0.33234-0.42376-0.32289-0.43321 0.10087-0.10088 0.44505 0.34903 0.58658 0.56843 0.36668 0.56843-0.0555 0-0.26588-0.2104-0.46755-0.46755zm-52.733-24.113c0.09082-0.14695 0.21814-0.26718 0.28294-0.26718s0.11782 0.12023 0.11782 0.26718c0 0.14694-0.12732 0.26717-0.28294 0.26717-0.15562 0-0.20864-0.12023-0.11782-0.26717z" fill="#4d5e73"/>
<path d="m-2.3178 162.74c-0.4041-0.14759-0.73473-0.37558-0.73473-0.50664 0-0.13107 0.33063-0.11173 0.73473 0.043 1.8899 0.72351 5.3325-0.55523 9.0047-3.3447 1.0355-0.78658 5.5583-4.7804 10.051-8.875 4.4924-4.0947 10.558-9.609 13.479-12.254 2.9213-2.645 6.8201-6.1928 8.6641-7.8838 1.844-1.6911 5.0734-4.6284 7.1764-6.5273 2.1632-1.9533 4.5015-4.352 5.3844-5.5238 2.3631-3.1361 3.3119-6.2473 2.2338-7.3254-0.67803-0.67802-3.5404-0.43254-5.4973 0.47146-0.84494 0.39033-1.5363 0.64992-1.5363 0.57686 0-0.0731 0.7934-0.50412 1.7631-0.9579 2.3852-1.1162 5.1148-1.3529 5.9515-0.51625 1.6123 1.6123-0.23935 6.2328-4.1428 10.338-0.56847 0.59785-3.0775 2.9338-5.5756 5.1911-2.4981 2.2572-5.3235 4.8339-6.2786 5.726-0.95515 0.89205-4.1328 3.786-7.0614 6.4311-2.9286 2.645-8.9401 8.1034-13.359 12.13s-8.9072 8.0189-9.9745 8.8725c-4.1444 3.3146-7.9719 4.7794-10.283 3.9354zm118.56-10.076c-1.0195-0.26782-3.3397-1.2948-3.3397-1.4782 0-0.0765 0.57108 0.11354 1.2691 0.42234 1.8977 0.83957 5.2291 0.97877 6.7995 0.2841 3.5906-1.5883 4.0473-6.4768 1.0167-10.882-0.45644-0.66341-3.559-3.6876-6.8946-6.7203-3.3356-3.0328-9.1306-8.3009-12.878-11.707-19.73-17.933-18.148-16.588-20.75-17.658-2.0547-0.84482-5.0875-0.90258-6.6456-0.12655-1.0447 0.52033-1.0503 0.52037-0.43196 4e-3 1.6871-1.4103 5.2645-1.3728 8.371 0.0878 2.3729 1.1157 2.2452 1.0055 20.803 17.947 2.5772 2.3528 7.7218 7.0283 11.432 10.39 3.7105 3.3617 7.1107 6.6418 7.556 7.289 1.5938 2.3165 2.178 3.9828 2.1926 6.254 0.012 1.8597-0.0727 2.2252-0.78116 3.3718-1.0978 1.7767-2.5622 2.5503-5.022 2.653-1.0427 0.0435-2.2565-0.0156-2.6973-0.13145zm-130.45-1.3973c-0.18368-0.19018-0.31814-0.7726-0.2988-1.2943l0.03517-0.94847 0.16521 0.92941c0.24215 1.3622 1.0674 1.5659 3.4333 0.84731 2.9099-0.88386 5.9201-3.0801 13.965-10.188 4.041-3.5708 10.765-9.511 14.942-13.201 4.1773-3.6896 10.309-9.1067 13.626-12.038 8.9124-7.8767 10.84-10.02 11.912-13.25 0.91321-2.7494-0.36343-3.216-4.813-1.7588-0.29389 0.0962 0.1166-0.14423 0.91221-0.53437 1.8599-0.91208 4.152-1.0209 4.7447-0.22523 1.0651 1.43-1.1674 5.9267-4.6864 9.4394-0.96818 0.96644-6.0992 5.5354-20.627 18.368-4.1773 3.6898-10.962 9.6837-15.076 13.32-7.6342 6.7464-10.249 8.7616-12.919 9.9563-1.7754 0.79432-4.79 1.1224-5.3153 0.57857z" fill="#234670"/>
</g>
<text x="0.64646494" y="292.81992" fill="#000000" font-family="Impact" font-size="5.8078px" letter-spacing="0px" stroke="#ffffff" stroke-width=".31113" word-spacing="0px" style="line-height:1.25" xml:space="preserve"><tspan x="0.64646494" y="292.81992" font-family="Impact" font-size="5.8078px" stroke="#ffffff" stroke-width=".31113">BETA</tspan></text>
</g>
</svg>
